Intro to R with NYC 311 Data
…
To get help at any point, type: ?package_name or ?function_name to console to bring up the help.

Data import:

read_csv() is part of the readr package, and will import the data as a tibble

read.csv() is bart of base r and will import the data as a data.frame

call.data <- read_csv(file = "311service_2015calls_10per.csv", col_names = TRUE)
call.data <- call.data %>% 
  arrange(desc(`Unique Key`))
call.data

## # A tibble: 228,221 x 16
##    `Unique Key`         `Created Date`          `Closed Date` Agency
##           <int>                  <chr>                  <chr>  <chr>
##  1     36002467 10/06/2015 12:00:00 AM 10/10/2015 12:00:00 AM    DEP
##  2     35285098 11/18/2015 09:39:16 AM 01/19/2017 12:00:00 AM    DOB
##  3     33497115 06/09/2015 12:00:00 AM 07/08/2015 12:00:00 AM    DEP
##  4     33378674 06/21/2015 01:20:01 PM                   <NA>    DOT
##  5     33372655 06/21/2015 04:58:06 PM                   <NA>    DOT
##  6     33370468 06/21/2015 08:27:25 PM                   <NA>    DOT
##  7     33350985 06/19/2015 06:59:57 PM                   <NA>    DOT
##  8     33349216 06/21/2015 11:15:27 AM                   <NA>    DOT
##  9     33349158 06/21/2015 08:17:41 PM                   <NA>    DOT
## 10     33347477 06/20/2015 05:03:09 AM                   <NA>    DOT
## # ... with 228,211 more rows, and 12 more variables: `Agency Name` <chr>,
## #   `Complaint Type` <chr>, Descriptor <chr>, `Location Type` <chr>,
## #   `Incident Zip` <int>, `Incident Address` <chr>, `Street Name` <chr>,
## #   City <chr>, Status <chr>, `Resolution Description` <chr>,
## #   Latitude <dbl>, Longitude <dbl>

vrbl.names <- str_to_lower(colnames(call.data))
vrbl.names <- gsub(" ", ".", vrbl.names)
colnames(call.data) <- vrbl.names
call.data

## # A tibble: 228,221 x 16
##    unique.key           created.date            closed.date agency
##         <int>                  <chr>                  <chr>  <chr>
##  1   36002467 10/06/2015 12:00:00 AM 10/10/2015 12:00:00 AM    DEP
##  2   35285098 11/18/2015 09:39:16 AM 01/19/2017 12:00:00 AM    DOB
##  3   33497115 06/09/2015 12:00:00 AM 07/08/2015 12:00:00 AM    DEP
##  4   33378674 06/21/2015 01:20:01 PM                   <NA>    DOT
##  5   33372655 06/21/2015 04:58:06 PM                   <NA>    DOT
##  6   33370468 06/21/2015 08:27:25 PM                   <NA>    DOT
##  7   33350985 06/19/2015 06:59:57 PM                   <NA>    DOT
##  8   33349216 06/21/2015 11:15:27 AM                   <NA>    DOT
##  9   33349158 06/21/2015 08:17:41 PM                   <NA>    DOT
## 10   33347477 06/20/2015 05:03:09 AM                   <NA>    DOT
## # ... with 228,211 more rows, and 12 more variables: agency.name <chr>,
## #   complaint.type <chr>, descriptor <chr>, location.type <chr>,
## #   incident.zip <int>, incident.address <chr>, street.name <chr>,
## #   city <chr>, status <chr>, resolution.description <chr>,
## #   latitude <dbl>, longitude <dbl>
…
What are they typical HPD complaints?

hpd.calls <- top.six %>%
  filter(agency == "HPD")
length(unique(call.data$complaint.type))

## [1] 216

call.data %>% 
  group_by(complaint.type) %>% 
  summarise(tot = n()) %>% 
  arrange(desc(tot))

## # A tibble: 216 x 2
##            complaint.type   tot
##                     <chr> <int>
##  1         HEAT/HOT WATER 22615
##  2    Noise - Residential 20875
##  3       Street Condition 12332
##  4       Blocked Driveway 10072
##  5 Street Light Condition  9710
##  6        Illegal Parking  9335
##  7   UNSANITARY CONDITION  8338
##  8           Water System  7127
##  9          PAINT/PLASTER  6928
## 10                  Noise  5636
## # ... with 206 more rows
…
hpd.calls %>%
  group_by(descriptor) %>%
  summarise(tot = n()) %>%
  arrange(desc(tot))

## # A tibble: 63 x 2
##         descriptor   tot
##              <chr> <int>
##  1 ENTIRE BUILDING 14681
##  2  APARTMENT ONLY  7934
##  3           PESTS  4098
##  4            WALL  3364
##  5         CEILING  3304
##  6            MOLD  2636
##  7           FLOOR  2585
##  8            DOOR  1784
##  9      HEAVY FLOW  1669
## 10      BASIN/SINK  1592
## # ... with 53 more rows
…
head(call.data$created.date)

## [1] "10/06/2015 12:00:00 AM" "11/18/2015 09:39:16 AM"
## [3] "06/09/2015 12:00:00 AM" "06/21/2015 01:20:01 PM"
## [5] "06/21/2015 04:58:06 PM" "06/21/2015 08:27:25 PM"

pop.comp <- call.data %>%
  filter(complaint.type %in% complaints$complaint.type[1:6]) %>%
  separate(created.date, c("date", "time", "tod"), sep = " ") %>%
  mutate(date = mdy(date))

pop.comp

## # A tibble: 84,939 x 18
##    unique.key       date     time   tod closed.date agency
##         <int>     <date>    <chr> <chr>       <chr>  <chr>
##  1   33378674 2015-06-21 01:20:01    PM        <NA>    DOT
##  2   33372655 2015-06-21 04:58:06    PM        <NA>    DOT
##  3   33370468 2015-06-21 08:27:25    PM        <NA>    DOT
##  4   33350985 2015-06-19 06:59:57    PM        <NA>    DOT
##  5   33349216 2015-06-21 11:15:27    AM        <NA>    DOT
##  6   33349158 2015-06-21 08:17:41    PM        <NA>    DOT
##  7   33347477 2015-06-20 05:03:09    AM        <NA>    DOT
##  8   33346538 2015-06-20 03:29:36    PM        <NA>    DOT
##  9   33345751 2015-06-21 08:21:22    PM        <NA>    DOT
## 10   33344847 2015-06-20 06:11:25    PM        <NA>    DOT
## # ... with 84,929 more rows, and 12 more variables: agency.name <chr>,
## #   complaint.type <chr>, descriptor <chr>, location.type <chr>,
## #   incident.zip <int>, incident.address <chr>, street.name <chr>,
## #   city <chr>, status <chr>, resolution.description <chr>,
## #   latitude <dbl>, longitude <dbl>
…
